Suicide Squad - Data Preparation
…
diff

Joining the two datasets

suicidedata_cln_region = suicidedata_cln_ctry %>%
  left_join(world_region_cln, by = c('country' = 'country')) %>%
  select(!Year) %>%
  rename(code = Code,
         region = World_RegionbyWorld_Bank) %>%
  relocate(code:region, .after = country)

suicidedata_cln_region

# A tibble: 330,480 × 13
   country    code  region sex_n…¹ age_n…² cause…³  year suici…⁴ suici…⁵ suici…⁶
   <chr>      <chr> <chr>  <chr>   <chr>   <chr>   <dbl>   <dbl>   <dbl>   <dbl>
 1 Afghanist… AFG   South… Male    10-14 … Self-h…  1991   10.5  0.00830   1.43 
 2 Afghanist… AFG   South… Female  10-14 … Self-h…  1991    1.97 0.00174   0.281
 3 Afghanist… AFG   South… Both    10-14 … Self-h…  1991   12.4  0.00519   0.866
 4 Afghanist… AFG   South… Male    15-19 … Self-h…  1991   43.4  0.0194    5.49 
 5 Afghanist… AFG   South… Female  15-19 … Self-h…  1991   36.2  0.0216    4.87 
 6 Afghanist… AFG   South… Both    15-19 … Self-h…  1991   79.6  0.0203    5.19 
 7 Afghanist… AFG   South… Male    20-24 … Self-h…  1991   60.9  0.0250    9.58 
 8 Afghanist… AFG   South… Female  20-24 … Self-h…  1991   68.4  0.0320   10.7  
 9 Afghanist… AFG   South… Both    20-24 … Self-h…  1991  129.   0.0283   10.1  
10 Afghanist… AFG   South… Male    25-29 … Self-h…  1991   34.8  0.0246    9.57 
# … with 330,470 more rows, 3 more variables: population_size <dbl>,
#   death_number <dbl>, death_rate <dbl>, and abbreviated variable names
#   ¹​sex_name, ²​age_name, ³​cause_name, ⁴​suicide_Number, ⁵​suicide_Percent,
#   ⁶​suicide_Rate
…
